{
    "coc.preferences.formatOnSave": true,
    "ruff.nativeServer": true,
    "ruff.autoFixOnSave": true,
    "python.formatting.provider": "none",
    "markdownlint.config": {
        "default": true,
        "line_length": false
    },
    "markdown-preview-enhanced.scrollSync": true,
    "markdown-preview-enhanced.previewTheme": "atom-dark.css",
    "languageserver": {
        "latex": {
            "command": "/PATH/TO/texlab",
            "filetypes": [
                "tex",
                "bib",
                "plaintex",
                "context"
            ]
        }
    }
}
